{
    "BASE_HOMEDIR" : "/home/autobuilder/pokybuild3",
    "BASE_SHAREDDIR" : "/srv/autobuilder/dsautobuilder-share",
    "BASE_PUBLISHDIR" : "/srv/autobuilder/dsautobuilder-pub",

    "BUILD_HISTORY_DIR" : "buildhistory",
    "BUILD_HISTORY_REPO" : "ssh://git@bitbucket.org/deepseaiot/poky-buildhistory.git",
    "BUILD_HISTORY_DIRECTPUSH" : ["meta-ds:warrior", "meta-ds:master"],
    "BUILD_HISTORY_FORKPUSH" : {"meta-ds:warrior-next" : "meta-ds:warrior", "meta-ds:master-next" : "meta-ds:master"},
    "REPO_STASH_DIR" : "${BASE_HOMEDIR}/yocto-worker/repo-stash-dir",
    "TRASH_DIR" : "${BASE_HOMEDIR}/yocto-worker/trash",

    "QAMAIL_TO" : "c.papachristou@deepsea.ai",
    "QAMAIL_CC" : "c.papachristou@deepsea.ai",
    "WEBPUBLISH_DIR" : "${BASE_SHAREDDIR}/",
    "WEBPUBLISH_URL" : "http://controller.dsautobuilder:8010/",

    "BUILDPERF_STATEDIR" : "/home/autobuilder/pokybuild3/buildperf",
    "BUILDPERF_RESULTSDIR" : "/home/autobuilder/pokybuild3/buildperf-results",

    "defaults" : {
        "DISTRO" : "poky",
        "NEEDREPOS" : ["poky", "meta-openembedded", "meta-raspberrypi", "meta-mender", "meta-erlang", "meta-iot-cloud", "meta-swupdate", "meta-ds"],
        "SDKMACHINE" : "x86_64",
        "PACKAGE_CLASSES" : "package_deb",
        "PRSERV" : "PRSERV_HOST = 'localhost:0'",
        "DLDIR" : "DL_DIR = '${BASE_SHAREDDIR}/current_sources'",
        "SSTATEDIR" : ["SSTATE_DIR ?= '${BASE_SHAREDDIR}/pub/sstate-warrior'"],
        "SSTATEDIR_RELEASE" : ["SSTATE_MIRRORS += 'file://.* file://${BASE_SHAREDDIR}/pub/sstate-warrior/PATH'", "SSTATE_DIR ?= '${BASE_PUBLISHDIR}/sstate/@RELEASENUM@'"],
        "SDKEXTRAS" : ["SSTATE_MIRRORS += '\\", "file://.* http://webserver.dsautobuilder/sstate/warrior/@RELEASENUM@PATH;downloadfilename=PATH file://.* http://webserver.dsautobuilder/sstate/release/@RELEASENUM@PATH;downloadfilename=PATH'"],
        "BUILDINFO" : false,
        "BUILDHISTORY" : false,
        "BUILDINFOVARS" : ["INHERIT += 'image-buildinfo'", "IMAGE_BUILDINFO_VARS_append = ' IMAGE_BASENAME IMAGE_NAME'"],
        "WRITECONFIG" : true,
        "SENDERRORS" : false,
        "extravars" : [
            "QEMU_USE_KVM = 'True'",
	    "PREMIRRORS =  'git://.*/.* http://webserver.dsautobuilder/mirror/sources  ftp://.*/.* http://webserver.dsautobuilder/mirror/sources/ http://.*/.* http://webserver.dsautobuilder/mirror/sources/ https://.*/.* http://webserver.dsautobuilder/mirror/sources/ '",
            "BB_GENERATE_MIRROR_TARBALLS = '1'",
            "BB_NUMBER_THREADS = '4'",
            "PARALLEL_MAKE = '-j 4'",
            "BB_TASK_NICE_LEVEL = '5'",
            "BB_TASK_NICE_LEVEL_task-testimage = '0'",
            "BB_TASK_IONICE_LEVEL = '2.7'",
            "BB_TASK_IONICE_LEVEL_task-testimage = '2.1'",
            "TEST_QEMUBOOT_TIMEOUT = '1500'",
            "SANITY_TESTED_DISTROS = ''",
            "SDK_EXT_TYPE = 'minimal'",
            "SDK_INCLUDE_TOOLCHAIN = '1'",
            "BB_DISKMON_DIRS = 'STOPTASKS,${TMPDIR},1G,100K STOPTASKS,${DL_DIR},1G STOPTASKS,${SSTATE_DIR},1G STOPTASKS,/tmp,100M,100K ABORT,${TMPDIR},100M,1K ABORT,${DL_DIR},100M ABORT,${SSTATE_DIR},100M ABORT,/tmp,10M,1K'",
	    "GSTEXAMPLES = ''",
            "LICENSE_FLAGS_WHITELIST = 'commercial_mender-binary-delta commercial_faad2 commercial_ffmpeg commercial_x264 commercial_libomxil'",
	    "RPROVIDES_python3-core += 'python3-lang'",
	    "EXTRA_IMAGE_FEATURES = ''",
	    "MENDER_FEATURES_ENABLE_append = ' mender-uboot'"
        ]
    },
    "templates" : {
        "arch-qemu" : {
            "BUILDINFO" : true,
            "BUILDHISTORY" : false,
            "extravars" : [ 
		    "INHERIT += 'testimage'"
	    ],
            "step1" : {
                "BBTARGETS" : "core-image-sato core-image-sato-dev core-image-sato-sdk core-image-minimal core-image-minimal-dev core-image-sato:do_populate_sdk",
                "SANITYTARGETS" : "core-image-minimal:do_testimage core-image-sato:do_testimage core-image-sato-sdk:do_testimage core-image-sato:do_testsdk"
            },
            "step2" : {
                "extravars" : [
                     "INHERIT+ = 'mender-image'"
                ],
                "BBTARGETS" : "core-image-base-ds core-image-base-ds-dev core-image-base-ds:do_populate_sdk",
                "SANITYTARGETS" : "core-image-base-ds:do_testimage"
            }
        },
        "arch-ds" : {
            "DISTRO" : "ds-os",
            "BUILDINFO" : true,
            "ADDLAYER" : [
            	"${BUILDDIR}/../meta-openembedded/meta-oe",
            	"${BUILDDIR}/../meta-openembedded/meta-python",
            	"${BUILDDIR}/../meta-openembedded/meta-networking",
            	"${BUILDDIR}/../meta-openembedded/meta-filesystems",
            	"${BUILDDIR}/../meta-openembedded/meta-webserver",
            	"${BUILDDIR}/../meta-openembedded/meta-multimedia",
            	"${BUILDDIR}/../meta-openembedded/meta-perl",
	    	"${BUILDDIR}/../meta-mender/meta-mender-core",
	    	"${BUILDDIR}/../meta-mender/meta-mender-raspberrypi",
	    	"${BUILDDIR}/../meta-mender/meta-mender-commercial",
	    	"${BUILDDIR}/../meta-iot-cloud",
	    	"${BUILDDIR}/../meta-erlang",
	    	"${BUILDDIR}/../meta-swupdate",
	    	"${BUILDDIR}/../meta-ds/meta-ds-bsp",
	    	"${BUILDDIR}/../meta-ds/meta-ds-os"
	    ]
        },
        "lsb-qemu" : {
            "DISTRO" : "poky-lsb",
            "BUILDINFO" : true,
            "BUILDHISTORY" : true,
            "extravars" : [ 
		    "INHERIT += 'testimage'"
	    ],
            "step1" : {
                "BBTARGETS" : "core-image-full-cmdline core-image-sato core-image-sato-sdk",
                "SANITYTARGETS" : "core-image-full-cmdline:do_testimage core-image-sato:do_testimage core-image-sato-sdk:do_testimage"
            }
        },
        "ptest-qemu" : {
            "DISTRO" : "ds-os",
            "BUILDINFO" : true,
            "ADDLAYER" : [
            	"${BUILDDIR}/../meta-openembedded/meta-oe",
            	"${BUILDDIR}/../meta-openembedded/meta-python",
            	"${BUILDDIR}/../meta-openembedded/meta-networking",
            	"${BUILDDIR}/../meta-openembedded/meta-filesystems",
            	"${BUILDDIR}/../meta-openembedded/meta-webserver",
            	"${BUILDDIR}/../meta-openembedded/meta-multimedia",
            	"${BUILDDIR}/../meta-openembedded/meta-perl",
	    	"${BUILDDIR}/../meta-mender/meta-mender-core",
	    	"${BUILDDIR}/../meta-mender/meta-mender-raspberrypi",
	    	"${BUILDDIR}/../meta-mender/meta-mender-commercial",
	    	"${BUILDDIR}/../meta-iot-cloud",
	    	"${BUILDDIR}/../meta-erlang",
	    	"${BUILDDIR}/../meta-swupdate",
	    	"${BUILDDIR}/../meta-ds/meta-ds-bsp",
	    	"${BUILDDIR}/../meta-ds/meta-ds-os"
	    ],
            "BBTARGETS" : "core-image-base-ds-ptest",
            "SANITYTARGETS" : "core-image-base-ds-ptest:do_testimage",
            "extravars" : [
                "TEST_SUITES = 'ping ssh ptest'",
		"INHERIT += 'testimage'"
            ]
        },
        "ptest-qemu-fast" : {
            "BUILDINFO" : true,
            "BBTARGETS" : "core-image-sato-ptest-fast",
            "SANITYTARGETS" : "core-image-sato-ptest-fast:do_testimage",
            "extravars" : [
                "TEST_SUITES = 'ping ssh ptest'",
		"INHERIT += 'testimage'"
            ]
        },
        "ltp-qemu" : {
            "BUILDINFO" : true,
            "BBTARGETS" : "core-image-sato",
            "SANITYTARGETS" : "core-image-sato:do_testimage",
            "extravars" : [
                "IMAGE_INSTALL_append = ' ltp'",
                "TEST_SUITES = 'ping ssh ltp ltp_compliance'",
                "IMAGE_OVERHEAD_FACTOR = '1.0'",
                "IMAGE_ROOTFS_EXTRA_SPACE = '1324288'",
                "QB_MEM = '-m 1024'"
            ]
        },
        "raspberrypi-hw" : {
            "BUILDINFO" : true,
            "step1" : {
                "BBTARGETS" : "core-image-minimal core-image-minimal-dev core-image-minimal:do_populate_sdk"
            }
        },
        "arch-hw" : {
            "BUILDINFO" : true,
            "step1" : {
                "BBTARGETS" : "core-image-sato core-image-sato-dev core-image-sato-sdk core-image-minimal core-image-minimal-dev core-image-sato-ptest core-image-sato:do_populate_sdk",
                "SANITYTARGETS" : "core-image-sato:do_testsdk"
            }
        },
        "buildperf" : {
            "MACHINE" : "qemux86-64",
            "SDKMACHINE" : "x86_64",
            "SSTATEDIR" : ["SSTATE_DIR ?= '${HELPERBUILDDIR}/sstate-warrior'"],
            "SSTATEDIR_RELEASE" : ["SSTATE_DIR ?= '${HELPERBUILDDIR}/sstate-warrior'"],
            "EXTRAPLAINCMDS" : [
                "${SCRIPTSDIR}/build-perf-test-wrapper -r ${BUILDPERF_RESULTSDIR} -E yocto-perf@lists.yoctoproject.org -d ${BUILDPERF_STATEDIR}/downloads -w /home/pokybuild/build-perf-test -p ${HELPERRESULTSDIR}/${HELPERTARGET} -R ${HELPERREPONAME} -b ${HELPERBRANCHNAME} --push git@push.yoctoproject.org:yocto-buildstats"
            ],
            "extravars" : [
                "BB_NUMBER_THREADS = '8'",
                "PARALLEL_MAKE = '-j 8'",
                "DL_DIR = '${BUILDPERF_STATEDIR}/downloads'",
                "CONNECTIVITY_CHECK_URIS = ''"
            ]
        },
        "selftest" : {
            "MACHINE" : "qemux86-64",
            "SDKMACHINE" : "x86_64",
            "extravars" : [
                "RPM_GPG_SIGN_CHUNK = '1'"
            ],
            "step1" : {
                "EXTRACMDS" : ["bitbake-selftest"]
            },
            "step2" : {
                "EXTRACMDS" : ["${SCRIPTSDIR}/checkvnc; DISPLAY=:1 oe-selftest --skip-tests distrodata.Distrodata.test_checkpkg buildoptions.SourceMirroring.test_yocto_source_mirror -j 15"],
                "ADDLAYER" : ["${BUILDDIR}/../meta-selftest"]
            },
            "step3" : {
                "EXTRACMDS" : ["if [ `which oe-pylint` ]; then mkdir -p ${HELPERRESULTSDIR}/${HELPERTARGET}; oe-pylint > ${HELPERRESULTSDIR}/${HELPERTARGET}/pylint.log || true; fi"]
            }
        },
        "trigger-build" : {
            "MACHINE" : "ds-cm3",
            "TEMPLATE" : "arch-ds",
            "step1" : {
            	"ADDLAYER" : [
            	"${BUILDDIR}/../meta-openembedded/meta-oe",
            	"${BUILDDIR}/../meta-openembedded/meta-python",
            	"${BUILDDIR}/../meta-openembedded/meta-networking",
            	"${BUILDDIR}/../meta-openembedded/meta-filesystems",
            	"${BUILDDIR}/../meta-openembedded/meta-webserver",
            	"${BUILDDIR}/../meta-openembedded/meta-multimedia",
            	"${BUILDDIR}/../meta-openembedded/meta-perl",
	    	"${BUILDDIR}/../meta-mender/meta-mender-core",
	    	"${BUILDDIR}/../meta-mender/meta-mender-raspberrypi",
	    	"${BUILDDIR}/../meta-mender/meta-mender-commercial",
	    	"${BUILDDIR}/../meta-iot-cloud",
	    	"${BUILDDIR}/../meta-erlang",
	    	"${BUILDDIR}/../meta-swupdate",
	    	"${BUILDDIR}/../meta-ds/meta-ds-bsp",
	    	"${BUILDDIR}/../meta-ds/meta-ds-os"
	    	],
                "BBTARGETS" : "universe -c fetch",
                "extravars" : [
		    "INHERIT += 'blacklist'",
		    "PNBLACKLIST[bigbuckbunny-1080p] = 'Big download times'",
                    "SOURCE_MIRROR_FETCH = '1'"
                ]
            }
        },
        "trigger-build-quick" : {
            "MACHINE" : "ds-cm3",
            "BUILDHISTORY" : true,
            "TEMPLATE" : "arch-ds"
        }
    },
    "overrides" : {
        "qemuarm" : {
            "MACHINE" : "qemuarm",
            "TEMPLATE" : "arch-qemu"
        },
        "ds-cm3" : {
            "MACHINE" : "ds-cm3",
            "TEMPLATE" : "arch-ds",
            "step1" : {
                "extravars" : [
                   "INHERIT+ = 'mender-image mender-image-sd'"
                ],
                "BBTARGETS" : "core-image-base-ds"
            },
            "step2" : {
                "extravars" : [
                   "INHERIT+ = 'mender-image mender-image-sd'",
                   "IMAGE_FSTYPES_append = ' sdimg.gz'"
                ],
                "BBTARGETS" : "swu-neuro-full"
            }
            
        },
        "ds-stratocan" : {
            "MACHINE" : "ds-stratocan",
            "TEMPLATE" : "arch-ds",
            "extravars" : [
                  "INHERIT+ = 'mender-image mender-image-sd'"
            ],
            "step1" : {
                "BBTARGETS" : "core-image-base-ds"
            },
            "step2" : {
                "extravars" : [
                   "IMAGE_FSTYPES_append = ' sdimg.gz'"
                ],
                "BBTARGETS" : "swu-neuro-full"
            }
            
        },
        "ds-qemux86-64" : {
            "MACHINE" : "qemux86-64",
            "TEMPLATE" : "arch-ds",
            "extravars" : [
                   "INHERIT+ = 'mender-image mender-image-uefi'"
            ],
            "BBTARGETS" : "core-image-base-ds"
        },
        "ds-sdk" : {
            "TEMPLATE" : "arch-ds",
            "BUILDINFO" : false,
            "extravars" : [ 
		    "INHERIT += 'testimage'",
		    "MENDER_FEATURES_DISABLE_append = 'mender-image mender-image-sd mender-image-uefi'"
	    ],
            "step1" : {
                 "MACHINE" : "ds-cm3",
                 "BBTARGETS" : "core-image-base-ds:do_populate_sdk core-image-base-ds:do_populate_sdk_ext"
             },
            "step2" : {
                "MACHINE" : "ds-stratocan",
                "BBTARGETS" : "core-image-base-ds:do_populate_sdk"
            },
            "step3" : {
                "MACHINE" : "qemux86-64",
                "BBTARGETS" : "core-image-base-ds:do_populate_sdk"
            }
        },
        "ds-os" : {
            "TEMPLATE" : "arch-ds",
            "BUILDINFO" : false,
            "extravars" : [ 
		    "MENDER_FEATURES_DISABLE_append = 'mender-image mender-image-sd mender-image-uefi'"
	    ],
            "step1" : {
                 "MACHINE" : "ds-cm3",
                 "BBTARGETS" : "core-image-base-ds"
             },
            "step2" : {
                "MACHINE" : "ds-stratocan",
                "BBTARGETS" : "core-image-base-ds"
            },
            "step3" : {
                "MACHINE" : "qemux86-64",
                "BBTARGETS" : "core-image-base-ds"
            },
            "step4" : {
                "MACHINE" : "qemux86-64",
                "BBTARGETS" : "package-index"
            }
        },
       "bringup" : {
            "BUILDINFO" : true,
            "SSTATEDIR" : ["SSTATE_DIR ?= '${HELPERBUILDDIR}/sstate-warrior'"],
            "MACHINE" : "qemux86_64",
            "step1" : {
                "MACHINE" : "qemux86-64",
                "BBTARGETS" : "core-image-sato core-image-sato-dev core-image-sato-sdk core-image-minimal core-image-minimal-dev core-image-sato-sdk-ptest core-image-sato:do_populate_sdk",
                "SANITYTARGETS" : "core-image-sato:do_testsdk"

            },
            "step2" : {
                 "BBTARGETS" : "core-image-sato:do_populate_sdk core-image-minimal:do_populate_sdk_ext core-image-sato:do_populate_sdk_ext",
                 "SANITYTARGETS" : "core-image-sato:do_testsdk core-image-minimal:do_testsdkext core-image-sato:do_testsdkext"
             },
            "step3" : {
                "MACHINE" : "qemux86-64",
                "BBTARGETS" : "core-image-minimal:do_populate_sdk_ext core-image-sato:do_populate_sdk"
            },
            "step4" : {
                "BUILDINFO" : false,
                "MACHINE" : "qemux86-64",
                "EXTRACMDS" : ["${SCRIPTSDIR}/checkvnc; DISPLAY=:1 oe-selftest --skip-tests distrodata.Distrodata.test_checkpkg buildoptions.SourceMirroring.test_yocto_source_mirror -j 15"],
                "ADDLAYER" : ["${BUILDDIR}/../meta-selftest"]
            }
        },
        "poky-qemux86-64" : {
            "MACHINE" : "qemux86-64",
            "TEMPLATE" : "arch-qemu"
        },
        "qemux86-64-ptest" : {
            "MACHINE" : "qemux86-64",
            "TEMPLATE" : "ptest-qemu"
        },
        "qemux86-64-ptest-fast" : {
            "MACHINE" : "qemux86-64",
            "TEMPLATE" : "ptest-qemu-fast"
        },
        "wic" : {
            "BUILDINFO" : true,
            "extravars" : [
                "IMAGE_FSTYPES += ' hddimg'",
                "MACHINE_FEATURES_append = ' efi'"
            ],
            "step1" : {
                "MACHINE" : "qemux86-64",
                "BBTARGETS" : "wic-tools core-image-sato",
                "EXTRACMDS" : [
                    "wic create directdisk -e core-image-sato -o ${BUILDDIR}/tmp/deploy/wic_images/qemux86-64/directdisk/core-image-sato/",
                    "wic create directdisk-gpt -e core-image-sato -o ${BUILDDIR}/tmp/deploy/wic_images/qemux86-64/directdisk/core-image-sato/",
                    "wic create mkefidisk -e core-image-sato -o ${BUILDDIR}/tmp/deploy/wic_images/qemux86-64/directdisk/core-image-sato/"
                ]
            }
        },
        "buildtools" : {
            "MACHINE" : "qemux86-64",
            "step1" : {
                "BBTARGETS" : "buildtools-tarball uninative-tarball"
            }
        },
        "checkuri" : {
            "MACHINE" : "qemux86-64",
            "BBTARGETS" : "universe:do_checkuri",
            "extravars" : [
                "SOURCE_MIRROR_FETCH = '1'",
                "BB_NUMBER_THREADS = '1'",
                "do_checkuri_pn-lsof = ''"
            ]
        },
        "oe-selftest" : {
            "TEMPLATE" : "selftest"
        },
        "check-layer" : {
            "step1" : {
            	"ADDLAYER" : [
            		"${BUILDDIR}/../meta-openembedded/meta-oe",
            		"${BUILDDIR}/../meta-openembedded/meta-python"
	    	],
                "EXTRACMDS" : ["yocto-check-layer ../meta-ds/meta-ds-bsp --dependency ../meta-raspberrypi"]
            },
            "step2" : { 
            	"extravars" : [
                	"DISTRO_FEATURES_append = ' systemd pam polkit'"
            	],
		"EXTRACMDS" : ["yocto-check-layer --without-software-layer-signature-check ../meta-ds/meta-ds-os  --dependency  ../meta-raspberrypi ../meta-ds/meta-ds-bsp ../meta-mender/meta-mender-core ../meta-mender/meta-mender-raspberrypi ../meta-mender/meta-mender-commercial ../meta-erlang ../meta-iot-cloud ../meta-openembedded/meta-oe ../meta-openembedded/meta-networking ../meta-openembedded/meta-python ../meta-openembedded/meta-filesystems ../meta-openembedded/meta-multimedia ../meta-openembedded/meta-webserver ../meta-swupdate; true"]
            }
        },
        "a-quick" : {
            "TEMPLATE" : "trigger-build-quick"
        },
        "a-full" : {
            "TEMPLATE" : "trigger-build-quick"
        }
    },
    "repo-defaults" : {
        "poky" : {
            "url" : "git://git.yoctoproject.org/poky",
            "branch" : "warrior",
            "revision" : "f475afc5df0837532dcd0f3a831ddc3aec8941f1",
            "checkout-dirname" : ".",
            "no-layer-add" : true,
            "call-init" : true
        },
        "bitbake" : {
            "url" : "git://git.openembedded.org/bitbake",
            "branch" : "1.42",
            "revision" : "HEAD",
            "no-layer-add" : true
        },
        "meta-swupdate" : {
            "url" : "git://github.com/sbabic/meta-swupdate",
            "branch" : "warrior",
            "revision" : "7ebe40f1a9b312476580fc74541231ac202feaa4",
            "no-layer-add" : true
        },
        "meta-openembedded" : {
            "url" : "git://git.openembedded.org/meta-openembedded",
            "branch" : "warrior",
            "revision" : "a24acf94d48d635eca668ea34598c6e5c857e3f8",
            "no-layer-add" : true
        },
        "meta-ds" : {
            "url" : "ssh://git@bitbucket.org/deepseaiot/meta-ds",
            "branch" : "warrior-dev",
            "revision" : "HEAD",
            "no-layer-add" : true
        },
        "meta-iot-cloud" : {
            "url" : "https://github.com/intel-iot-devkit/meta-iot-cloud",
            "branch" : "warrior",
            "revision" : "8c6372fdfa653c7b8fac99b734b1632de15ad38c",
            "no-layer-add" : true
        },
        "meta-erlang" : {
            "url" : "https://github.com/joaohf/meta-erlang",
            "branch" : "master",
            "revision" : "5ebb4df3963e6c42406a972afbd92765d1855b09",
            "no-layer-add" : true
        },
        "meta-mender" : {
            "url" : "https://github.com/mendersoftware/meta-mender",
            "branch" : "warrior",
            "revision" : "ffbdad95de07ea746d8075980866edac673f58e9",
            "no-layer-add" : true
        },
        "meta-raspberrypi" : {
            "url" : "https://github.com/agherzan/meta-raspberrypi",
            "branch" : "warrior",
            "revision" : "615a1a83399623bcb7afb500bd9d3fc633e32004"
        }
    }
}
